INDEX VERSION 1.129+D:\Myzee\Microservices_WS\.metadata\.plugins\org.eclipse.jdt.core
3887496459.index
1800333150.index
2389136470.index
3953884287.index
2524686261.index
849216199.index
2917069901.index
3803010993.index
198374148.index
4159792412.index
590691900.index
3385796788.index
237991.index
770943104.index
4132884143.index
3849213909.index
2558004887.index
121425806.index
2540894911.index
4123663904.index
633707102.index
4082542483.index
832028453.index
3035212036.index
3855810299.index
2979733482.index
1264635746.index
950027788.index
2738018823.index
3319877253.index
1890472954.index
1880249183.index
3881506814.index
2011417658.index
3039018551.index
1368503425.index
2309295657.index
770598560.index
3311611846.index
3702044481.index
1033990643.index
1399818846.index
117045021.index
2814838404.index
4135160064.index
1840007474.index
2927710556.index
3829987899.index
3869934183.index
3082636871.index
1511048357.index
3121229760.index
65354767.index
4121869618.index
1499322161.index
1530150569.index
2712772079.index
3562929091.index
918720207.index
3486786789.index
3093672954.index
951354812.index
2812334621.index
2013717692.index
3355497560.index
792938064.index
364894254.index
3499506339.index
1325751483.index
4154544014.index
3257959502.index
953268777.index
150426594.index
3001940855.index
2899798490.index
633769300.index
4021375054.index
4014937272.index
4081700560.index
4011638520.index
3562007528.index
3044127640.index
2308878977.index
1095326705.index
1506276029.index
1408343197.index
3201211657.index
795355044.index
2599870488.index
1247579082.index
41681386.index
4238059749.index
4206597864.index
2135707647.index
1435718755.index
2557144579.index
977141205.index
3667287069.index
2498959314.index
985898788.index
2718832524.index
558996715.index
732547362.index
586009809.index
3710459435.index
4228853880.index
4282158459.index
3330662781.index
1227456027.index
2209153000.index
490962603.index
1938008784.index
1209801293.index
4078644055.index
3059655264.index
726296135.index
3394695216.index
3227839968.index
920702463.index
2688660546.index
4019205232.index
548303503.index
2612631131.index
1167300987.index
4211167431.index
4249232101.index
9548211.index
3198547065.index
3273046749.index
1260162806.index
1350645273.index
3400634606.index
3124756139.index
110183453.index
258082749.index
2727338580.index
774571915.index
893780298.index
2231021247.index
3568875560.index
494586083.index
3378756994.index
1273106464.index
1316973670.index
539546772.index
3249857160.index
2720578951.index
944137446.index
1192328093.index
3126769327.index
882241404.index
3562415365.index
4105401005.index
4116150375.index
4010607191.index
4141160092.index
270301673.index
2659669633.index
928484829.index
865854845.index
834803133.index
3335633474.index
4168717240.index
1859243244.index
2126878743.index
1349276837.index
912717381.index
2022826171.index
634334367.index
2546586854.index
2846109620.index
1070397375.index
930900409.index
3304742522.index
3195078049.index
692368098.index
4216287966.index
439415431.index
163603219.index
674697994.index
2784377903.index
3203866016.index
1866593420.index
98049728.index
1436863955.index
279900723.index
593757138.index
1336284671.index
596583112.index
2671500676.index
3461587079.index
1147021251.index
2812649754.index
1474475051.index
2431855298.index
2783950596.index
3680464794.index
3145696651.index
