<?xml version="1.0" encoding="UTF-8"?>
<session version="1.0">
<refactoring comment="Copy element &apos;Rating.java&apos; to &apos;movie-catalog-service/src/main/java/com.myzee.model&apos;&#x0D;&#x0A;- Original project: &apos;movie-rating-service&apos;&#x0D;&#x0A;- Destination element: &apos;movie-catalog-service/src/main/java/com.myzee.model&apos;&#x0D;&#x0A;- Original element: &apos;com.myzee.movieratingservice.Rating.java&apos;" description="Copy compilation unit" destination="=movie-catalog-service/src\/main\/java&lt;com.myzee.model" element1="/src\/main\/java&lt;com.myzee.movieratingservice{Rating.java" files="0" flags="589830" folders="0" id="org.eclipse.jdt.ui.copy" policy="org.eclipse.jdt.ui.copyResources" stamp="1582534278094" units="1" version="1.0"/>
</session>